…
Here I used a subset of the data that got rid of the missing years and
binned years to create decades. We can see there are a lot of artwork
created in the mid 1900s.

### Artist breakdown

``` r
uoe_art_fixed %>%
  count(artist, sort = TRUE)
```

    ## # A tibble: 1,199 × 2
    ##    artist               n
    ##    <chr>            <int>
    ##  1 Unknown            373
    ##  2 Emma Gillies       175
    ##  3 <NA>               111
    ##  4 Ann F Ward          23
    ##  5 John Bellany        22
    ##  6 Zygmunt Bukowski    21
    ##  7 Boris Bućan         17
    ##  8 Marjorie Wallace    17
    ##  9 Gordon Bryce        16
    ## 10 William Gillon      16
    ## # ℹ 1,189 more rows
…
